…
#### Counting values

``` r
data <- ggplot2::diamonds

data_result <- aggregation_data(data = data,
                                 agg = "count",
                                 to_agg = NULL,
                                 agg_name = "Conteo",
                                 group_var = c("cut", "color"))

data_result
#> # A tibble: 35 × 3
#> # Groups:   cut [5]
#>    cut   color Conteo
#>    <ord> <ord>  <int>
#>  1 Fair  D        163
#>  2 Fair  E        224
#>  3 Fair  F        312
#>  4 Fair  G        314
#>  5 Fair  H        303
#>  6 Fair  I        175
#>  7 Fair  J        119
#>  8 Good  D        662
#>  9 Good  E        933
#> 10 Good  F        909
#> # … with 25 more rows
```
…
